<?xml version="1.0" standalone="no"?>
<!DOCTYPE svg PUBLIC "-//W3C//DTD SVG 1.1//EN" "http://www.w3.org/Graphics/SVG/1.1/DTD/svg11.dtd" >
<svg xmlns="http://www.w3.org/2000/svg">
<metadata>
Created by FontForge 20100429 at Thu Oct  4 15:21:08 2012
 By root
Copyright (C) 2012 by original authors @ fontello.com
</metadata>
<defs>
<font id="icons" horiz-adv-x="947" >
  <font-face 
    font-family="icons"
    font-weight="500"
    font-stretch="normal"
    units-per-em="1000"
    panose-1="2 0 6 3 0 0 0 0 0 0"
    ascent="800"
    descent="-200"
    bbox="-0.285714 -200 1015 800"
    underline-thickness="50"
    underline-position="-100"
    unicode-range="U+2302-1F4D5"
  />
<missing-glyph horiz-adv-x="364" 
d="M33 0v666h265v-666h-265zM66 33h199v600h-199v-600z" />
    <glyph glyph-name=".notdef" horiz-adv-x="364" 
d="M33 0v666h265v-666h-265zM66 33h199v600h-199v-600z" />
    <glyph glyph-name=".null" horiz-adv-x="0" 
 />
    <glyph glyph-name="nonmarkingreturn" horiz-adv-x="333" 
 />
    <glyph glyph-name="house" unicode="&#x2302;" 
d="M1 339q3 12 14 20l433 356q12 9 25.5 9t25.5 -9l133 -109v61q0 20 20 20h117q20 0 20 -20v-190l144 -118q10 -8 13 -20t-1 -24q-10 -25 -38 -25h-79v-316q0 -17 -11 -28.5t-28 -11.5h-216v237h-198v-237h-217q-17 0 -28.5 11.5t-11.5 28.5v316h-79q-26 0 -37 25
q-4 12 -1 24z" />
    <glyph glyph-name="uni23F3" unicode="&#x23f3;" horiz-adv-x="590" 
d="M575 571q0 -36 -30.5 -76.5t-66.5 -70.5t-66.5 -64.5t-30.5 -59.5t30.5 -59.5t66.5 -64.5t66.5 -70.5t30.5 -76.5v-118q0 -33 -86 -72t-194 -39t-194 39t-86 72v118q0 36 30.5 76.5t66.5 70.5t66.5 64.5t30.5 59.5t-30.5 59.5t-66.5 64.5t-66.5 70.5t-30.5 76.5v118
q0 33 86 72t194 39t194 -39t86 -72v-118zM92 684l-15 -11q-9 -11 2 -17q91 -54 216 -54q133 0 219 51q19 11 -16 31q-11 6 -29.5 15t-71 24t-99.5 15q-120 0 -206 -54zM320 300q0 15 5 29.5t9.5 24t18 25t19.5 21.5l26 25l25 24q91 86 91 122l3 50q-98 -54 -222 -54
q-123 0 -221 54l2 -50q0 -36 91 -122l25 -24l26 -25q6 -6 19.5 -21.5t18 -25t9.5 -24t5 -29.5t-5 -29.5t-9.5 -24t-18 -25t-19.5 -21.5l-26 -25l-25 -24q-91 -86 -91 -122v-67q7 3 66.5 23t93.5 44.5t34 58.5q0 18 12.5 26t25 0t12.5 -26q0 -34 34 -58.5t93.5 -44.5
t66.5 -23v67q0 36 -91 122l-25 24l-26 25q-6 6 -19.5 21.5t-18 25t-9.5 24t-5 29.5z" />
    <glyph glyph-name="uni2709" unicode="&#x2709;" horiz-adv-x="930" 
d="M45 536q-23 12 -28 33q1 19 25 21h846q33 0 23 -25q-7 -19 -26 -29l-375 -202q-19 -10 -45 -10t-45 10zM896 436q15 4 17 1.5t2 -12.5v-367q0 -16 -17 -32t-33 -16h-800q-16 0 -33 16t-17 32v367q0 10 2 12.5t17 -1.5l386 -202q19 -10 45 -10t45 10z" />
    <glyph glyph-name="uni2712" unicode="&#x2712;" horiz-adv-x="1010" 
d="M870 768q70 -5 100 -16t25 -25.5t-21 -28.5l-32 -32q-18 -18 -17 -30q2 -14 -11 -46.5t-29 -51.5q-10 -12 -95 -28.5t-165 -27.5l-80 -11q13 -7 36.5 -18.5t95 -32.5t141.5 -27q-26 -38 -80.5 -66t-114.5 -40t-116 -18.5t-93 -6.5h-36l12 -11q7 -7 31 -23.5t50 -29
t65.5 -21.5t78.5 -6q-2 -2 -19 -15.5t-26 -19.5l-31 -21q-21 -14 -39 -21l-42 -17q-26 -10 -51.5 -12.5t-56 -3.5t-64.5 5.5t-70 18.5l-149 -246q-7 -9 -21.5 -9.5t-25 11.5t-2.5 29l122 266q76 164 146.5 274t199.5 239q75 75 167.5 101.5t216.5 17.5z" />
    <glyph glyph-name="uniE800" unicode="&#xe800;" 
d="M0 443q0 58 30.5 109t82.5 89t122 60.5t150 22.5t150 -22.5t122 -60.5t82 -89t30 -109q0 -59 -30 -110t-82 -89t-122 -60t-150 -22q-19 0 -36.5 1.5t-35.5 3.5q-36 -28 -77 -48t-89 -30q-21 -5 -42 -6q-12 -2 -17 11v1q-2 6 2 10l8 8q18 18 31.5 39t22.5 67
q-70 38 -111 96t-41 128zM321 77l13 8q13 -2 26 -2h25q98 0 182.5 27.5t147 76t98 114.5t35.5 142q0 20 -3 41q48 -38 75 -86t27 -104q0 -69 -41 -126.5t-110 -96.5q8 -46 22 -66.5t31 -38.5q5 -5 8.5 -9.5t1.5 -9.5q-1 -6 -6.5 -10t-10.5 -3q-11 2 -21 3.5t-21 4.5
q-93 20 -165 76q-18 -2 -36 -3.5t-37 -1.5q-69 0 -129.5 17t-111.5 47z" />
    <glyph glyph-name="u1F465" unicode="&#x1f465;" horiz-adv-x="1030" 
d="M1015 -125h-225v144q0 52 -30 78.5t-154 85.5q41 29 41 81q0 14 -13.5 31.5t-18.5 49.5q-1 8 -5.5 11.5t-8.5 5t-8.5 11.5t-5.5 29q0 10 2.5 17t5.5 9l3 2q-6 33 -8 59q-1 14 3.5 31.5t16.5 37t38 32.5t62 13t62 -13t37.5 -32.5t16 -37t3.5 -31.5l-7 -59q10 -6 10 -28
q-1 -19 -5.5 -29t-8.5 -11.5t-8.5 -5t-5.5 -11.5q-5 -32 -18.5 -49.5t-13.5 -31.5q0 -40 21 -63.5t77 -46.5q61 -25 90 -41t41 -36q5 -8 8.5 -58.5t4.5 -96.5zM526 127q89 -36 136.5 -64t47.5 -56v-132h-695v176q0 20 15.5 36t28.5 22.5t35 15.5q3 1 5 2q75 30 103 61t28 85
q0 19 -18.5 42t-25.5 66q-2 10 -7.5 15t-11.5 7t-11 15t-7 39q0 13 3.5 22.5t7.5 12.5l4 2q-8 45 -11 79q-2 19 4.5 42t22 49t50.5 43.5t83 17.5t82.5 -17.5t50 -43.5t22 -49t4.5 -42l-10 -79q14 -7 14 -37q-2 -26 -7.5 -39t-11 -15t-11 -7t-7.5 -15q-7 -43 -25 -66t-18 -42
q0 -54 28 -85t102 -61z" />
    <glyph glyph-name="u1F4D5" unicode="&#x1f4d5;" horiz-adv-x="878" 
d="M5 94q1 9 2 16.5t2 17.5q0 5 -2 10.5t-1 10.5q1 8 8 16t13 19q12 19 23.5 46t16.5 47q2 9 -0.5 16.5t-0.5 13.5q2 8 8.5 14t10.5 12q6 10 11 22l12 25q5 13 8 25.5t4 21t-1 17t0 14.5q3 9 10.5 14t12.5 13q5 6 11 17.5t12 25.5t10 27t5 23q1 7 -2 13t-1 13.5t9.5 15.5
t13.5 16q8 13 14.5 30.5t15.5 31.5t23.5 22t40.5 1l-1 -3q15 6 27 6h401q40 0 61 -30q21 -27 10 -66l-146 -465q-9 -33 -39.5 -55.5t-65.5 -22.5h-459q-5 0 -10.5 -1t-9.5 -7q-6 -10 0 -28q9 -22 31.5 -39t44.5 -17h486q15 0 29.5 11t19.5 25l159 507q2 9 2.5 15.5
t-0.5 14.5q21 -8 31 -22q21 -28 10 -67l-146 -465q-9 -34 -39.5 -56t-65.5 -22h-486q-21 0 -41 7.5t-38 20t-31.5 30t-21.5 37.5q-12 35 -1 65zM257 428q-5 -20 14 -20h315q9 0 16 5.5t10 14.5l12 39q2 8 -1.5 14t-11.5 6h-316q-9 0 -16.5 -6t-10.5 -14zM293 546
q-2 -9 1.5 -14t11.5 -5h316q9 0 16 5t10 14l12 40q2 8 -1.5 14t-12.5 6h-315q-9 0 -16.5 -6t-10.5 -14z" />
  </font>
</defs></svg>
